[36m5 x 0 = 0
[39m[36m5 x 1 = 5
[39m[36m5 x 2 = 10
[39m[36m5 x 3 = 15
[39m[36m5 x 4 = 20
[39m[36m5 x 5 = 25
[39m[36m5 x 6 = 30
[39m[36m5 x 7 = 35
[39m[36m5 x 8 = 40
[39m[36m5 x 9 = 45
[39m[36m5 x 10 = 50
[39m